…
```{r ck_botw_gpkg}
# explore layers in the GeoPackage ----
# (d_lyrs <- st_layers(botw_gpkg))
#                 layer_name geometry_type features fields crs_name
# 1              all_species Multi Polygon    17379     19   WGS 84
# 2 main_BL_HBW_Checklist_V9            NA    11195     15     <NA>
#
# ply_all <- read_sf(botw_gpkg, d_lyrs$name[1])
# Simple feature collection with 17379 features and 18 fields
# Geometry type: GEOMETRY
# Dimension:     XY
# Bounding box:  xmin: -180 ymin: -85.58276 xmax: 180 ymax: 89.97895
# Geodetic CRS:  WGS 84
# # A tibble: 17,379 × 19
#      sisid sci_name presence origin seasonal source compiler data_sens sens_comm dist_comm tax_comm
#      <int> <chr>       <int>  <int>    <int> <chr>  <chr>        <int> <chr>     <chr>     <chr>   
#  1  2.27e7 Accipit…        1      1        2 del H… Philip …         0 " "       " "       " "     
#  2  2.27e7 Accipit…        1      1        4 Xeno … Hannah …         0 " "       " "       " "     
#  3  2.27e7 Accipit…        1      1        3 del H… Philip …         0 " "       " "       " "     
#  4  2.27e7 Acridot…        4      1        1 BirdL… Rob Mar…         0 " "       " "       " "     
#  5  2.27e7 Acridot…        1      1        1 eBird… Rob Mar…         0 " "       " "       " "     
#  6  2.27e7 Acridot…        1      5        1 eBird… Rob Mar…         0 " "       " "       " "     
#  7  2.27e7 Acridot…        1      3        1 Seng … Rob Mar…         0 " "       " "       " "     
#  8  2.27e7 Aegoliu…        1      1        1 Ding,… Rob Mar…         0 " "       " "       " "     
#  9  2.27e7 Aegoliu…        1      1        3 Cramp… Rob Mar…         0 " "       " "       " "     
# 10  2.27e7 Aepypod…        1      1        5 Mauro… Rob Mar…         0 " "       ""        ""      
# # ℹ 17,369 more rows
# # ℹ 8 more variables: generalisd <int>, citation <chr>, yrcompiled <int>, yrmodified <dbl>,
# #   version <chr>, Shape_Length <dbl>, Shape_Area <dbl>, Shape <MULTIPOLYGON [°]>
# # ℹ Use `print(n = ...)` to see more rows
…
