…
# d_spp |>
#   filter(n_features > 1) |> View()
# A tibble: 57 × 10
#    rowid spcode family           sciname       comname n_features esa_code_max n_esa_tn n_esa_en n_esa_lc
#    <int> <chr>  <chr>            <chr>         <chr>        <int> <ord>           <int>    <int>    <int>
#  1    59 D01T   Ambystomatidae   Ambystoma ca… Califo…          3 EN                  1        2        0
#  2    90 A009   Antilocapridae   Antilocapra … Sonora…          2 EN                  0        2        0
#  3   176 G016   Pleuroceridae    Athearnia an… Anthon…          3 EN                  0        3        0
#  4   280 A00D   Canidae          Canis lupus   Gray w…          4 LC                  1        2        1
#  5   281 A00E   Canidae          Canis lupus … Mexica…          2 EN                  0        2        0
#  6   282 A00F   Canidae          Canis rufus   Red wo…          2 EN                  0        2        0
#  7   314 B06W   Phasianidae      Centrocercus… Greate…          2 LC                  1        0        1
#  8   325 B079   Charadriidae     Charadrius m… Piping…          2 EN                  1        1        0
#  9   333 C00S   Cheloniidae      Chelonia myd… Green …          4 EN                  3        1        0
# 10   433 D043   Cryptobranchidae Cryptobranch… Easter…          2 EN                  0        2        0
# # ℹ 47 more rows
# rng |> st_drop_geometry() |> glimpse()
# Rows: 2,291
# Columns: 10
# $ range_note <chr> "This range has been defined at a scale of finer resolu…
# $ range_id   <dbl> 72997, 72998, 72999, 73000, 73001, 73002, 73003, 73004,…
# $ entity_id  <dbl> 1, 2, 3, 4, 5, 6, 7, 8, 10, 11, 12, 13, 15, 16, 18, 20,…
# $ spcode     <chr> "A000", "A001", "A002", "A003", "A004", "A006", "A007",…
# $ vipcode    <chr> "V01", "V01", "V01", "V01", "V01", "V01", "V01", "V01",…
…
