…
    gbif_id_new = coalesce(acceptedNameUsageID, taxonID),
    taxonomic_status = factor(
      taxonomicStatus,
      levels = c("valid", "accepted", "synonym", "not accepted", "invalid"),
      ordered = T
    )
  ) |>
  slice_min(
    by = scientific_name_clean,
    order_by = taxonomic_status,
    with_ties = F
  ) |>
  filter(!is.na(gbif_id_new)) |>
  select(sp_key, gbif_id, gbif_id_new) # 27
# A tibble: 27 × 3
#    sp_key     gbif_id gbif_id_new
#    <chr>        <int>       <int>
#  1 Fis-153539      NA     7059179
#  2 Fis-144084      NA     7193206
#  3 Fis-23839       NA     7193804
#  4 SLB-141293      NA     9802728
#  5 ITS-89613       NA     2115695
#  6 SLB-135613      NA     2668329
#  7 Fis-23314       NA     7193246
#  8 SLB-67618       NA     1004077
#  9 Fis-130709      NA     7193250
# 10 Fis-23218       NA     7193248
# ℹ 17 more rows
…
# count of species with duplicate worms_id, across datasets
# tbl(con_sdm, "species") |>
#   filter(
#     !is.na(worms_id)) |>
#   group_by(sp_cat, ds_key, worms_id) |>
#   summarize(
#     n = n(),
#     .groups = "drop") |>
#   filter(n > 1) |>
#   collect()
# # A tibble: 189 × 4
#    sp_cat       ds_key  worms_id     n
#    <chr>        <chr>      <int> <dbl>
#  1 other        am_0.05   157583     2
#  2 invertebrate am_0.05   140015     2
#  3 invertebrate am_0.05   117887     2
#  4 other        am_0.05  1491000     2
#  5 invertebrate am_0.05   146733     2
#  6 invertebrate am_0.05   216636     2
#  7 other        am_0.05   105444     2
#  8 invertebrate am_0.05   440094     2
#  9 invertebrate am_0.05   420788     2
# 10 invertebrate am_0.05   104548     2
# # ℹ 179 more rows
# # ℹ Use `print(n = ...)` to see more rows
…
